SistemaEntregas/model/Vertice.class
SistemaEntregas/model/Descolacamento.class
SistemaEntregas/model/MenorRotaDTO.class
SistemaEntregas/model/FiltroLogisticaDTO.class
SistemaEntregas/resource/RotaResource.class
SistemaEntregas/service/LogisticaService.class
SistemaEntregas/SistemaEntregasApplication.class
SistemaEntregas/model/RotaDTO.class
SistemaEntregas/resource/LogisticaResource.class
SistemaEntregas/service/RotaService.class
